%YAML 1.1
%TAG !u! tag:unity3d.com,2011:
--- !u!1 &4254141445644806889
GameObject:
  m_ObjectHideFlags: 0
  m_CorrespondingSourceObject: {fileID: 0}
  m_PrefabInstance: {fileID: 0}
  m_PrefabAsset: {fileID: 0}
  serializedVersion: 6
  m_Component:
  - component: {fileID: 4254141445644691615}
  - component: {fileID: 4254141445643858505}
  - component: {fileID: 4254141445642469813}
  - component: {fileID: 3011696371478292699}
  - component: {fileID: 1908499734626772974}
  - component: {fileID: 6084674491844133008}
  m_Layer: 0
  m_Name: ManaOrb
  m_TagString: Orb
  m_Icon: {fileID: 0}
  m_NavMeshLayer: 0
  m_StaticEditorFlags: 0
  m_IsActive: 1
--- !u!4 &4254141445644691615
Transform:
  m_ObjectHideFlags: 0
  m_CorrespondingSourceObject: {fileID: 0}
  m_PrefabInstance: {fileID: 0}
  m_PrefabAsset: {fileID: 0}
  m_GameObject: {fileID: 4254141445644806889}
  m_LocalRotation: {x: 0, y: 0, z: 0, w: 1}
  m_LocalPosition: {x: 0, y: 0, z: 0}
  m_LocalScale: {x: 3, y: 3, z: 3}
  m_Children:
  - {fileID: 5792484535064354010}
  m_Father: {fileID: 558940423738268736}
  m_RootOrder: 0
  m_LocalEulerAnglesHint: {x: 0, y: 0, z: 0}
--- !u!33 &4254141445643858505
MeshFilter:
  m_ObjectHideFlags: 0
  m_CorrespondingSourceObject: {fileID: 0}
  m_PrefabInstance: {fileID: 0}
  m_PrefabAsset: {fileID: 0}
  m_GameObject: {fileID: 4254141445644806889}
  m_Mesh: {fileID: 4300000, guid: 8379ff625d2011742be9fb60311cd24d, type: 3}
--- !u!23 &4254141445642469813
MeshRenderer:
  m_ObjectHideFlags: 0
  m_CorrespondingSourceObject: {fileID: 0}
  m_PrefabInstance: {fileID: 0}
  m_PrefabAsset: {fileID: 0}
  m_GameObject: {fileID: 4254141445644806889}
  m_Enabled: 1
  m_CastShadows: 2
  m_ReceiveShadows: 1
  m_DynamicOccludee: 1
  m_MotionVectors: 1
  m_LightProbeUsage: 1
  m_ReflectionProbeUsage: 1
  m_RayTracingMode: 2
  m_RenderingLayerMask: 1
  m_RendererPriority: 0
  m_Materials:
  - {fileID: 2100000, guid: eb58fabdd864a9a42b3f34aad6fe23cf, type: 2}
  m_StaticBatchInfo:
    firstSubMesh: 0
    subMeshCount: 0
  m_StaticBatchRoot: {fileID: 0}
  m_ProbeAnchor: {fileID: 0}
  m_LightProbeVolumeOverride: {fileID: 0}
  m_ScaleInLightmap: 1
  m_ReceiveGI: 1
  m_PreserveUVs: 0
  m_IgnoreNormalsForChartDetection: 0
  m_ImportantGI: 0
  m_StitchLightmapSeams: 0
  m_SelectedEditorRenderState: 3
  m_MinimumChartSize: 4
  m_AutoUVMaxDistance: 0.5
  m_AutoUVMaxAngle: 89
  m_LightmapParameters: {fileID: 0}
  m_SortingLayerID: 0
  m_SortingLayer: 0
  m_SortingOrder: 0
--- !u!95 &3011696371478292699
Animator:
  serializedVersion: 3
  m_ObjectHideFlags: 0
  m_CorrespondingSourceObject: {fileID: 0}
  m_PrefabInstance: {fileID: 0}
  m_PrefabAsset: {fileID: 0}
  m_GameObject: {fileID: 4254141445644806889}
  m_Enabled: 1
  m_Avatar: {fileID: 0}
  m_Controller: {fileID: 9100000, guid: 4cee33fc09988c44fb87654d6aeab46d, type: 2}
  m_CullingMode: 0
  m_UpdateMode: 0
  m_ApplyRootMotion: 0
  m_LinearVelocityBlending: 0
  m_WarningMessage: 
  m_HasTransformHierarchy: 1
  m_AllowConstantClipSamplingOptimization: 1
  m_KeepAnimatorControllerStateOnDisable: 0
--- !u!135 &1908499734626772974
SphereCollider:
  m_ObjectHideFlags: 0
  m_CorrespondingSourceObject: {fileID: 0}
  m_PrefabInstance: {fileID: 0}
  m_PrefabAsset: {fileID: 0}
  m_GameObject: {fileID: 4254141445644806889}
  m_Material: {fileID: 0}
  m_IsTrigger: 1
  m_Enabled: 1
  serializedVersion: 2
  m_Radius: 0.08984923
  m_Center: {x: 0.00000047683716, y: 0.08984922, z: 0.000000059604645}
--- !u!114 &6084674491844133008
MonoBehaviour:
  m_ObjectHideFlags: 0
  m_CorrespondingSourceObject: {fileID: 0}
  m_PrefabInstance: {fileID: 0}
  m_PrefabAsset: {fileID: 0}
  m_GameObject: {fileID: 4254141445644806889}
  m_Enabled: 1
  m_EditorHideFlags: 0
  m_Script: {fileID: 11500000, guid: ceff60e2debd5ef45b279bb56e4cc0ac, type: 3}
  m_Name: 
  m_EditorClassIdentifier: 
  Id: 0
  Item: {fileID: 11400000, guid: e00d90fd98445b94e81344c9ffc5a46c, type: 2}
  Type: 0
--- !u!1 &6372523886983022404
GameObject:
  m_ObjectHideFlags: 0
  m_CorrespondingSourceObject: {fileID: 0}
  m_PrefabInstance: {fileID: 0}
  m_PrefabAsset: {fileID: 0}
  serializedVersion: 6
  m_Component:
  - component: {fileID: 558940423738268736}
  m_Layer: 0
  m_Name: ManaOrbItem
  m_TagString: Untagged
  m_Icon: {fileID: 0}
  m_NavMeshLayer: 0
  m_StaticEditorFlags: 0
  m_IsActive: 1
--- !u!4 &558940423738268736
Transform:
  m_ObjectHideFlags: 0
  m_CorrespondingSourceObject: {fileID: 0}
  m_PrefabInstance: {fileID: 0}
  m_PrefabAsset: {fileID: 0}
  m_GameObject: {fileID: 6372523886983022404}
  m_LocalRotation: {x: 0, y: 0, z: 0, w: 1}
  m_LocalPosition: {x: 14.817053, y: 24.121284, z: -12.564642}
  m_LocalScale: {x: 1, y: 1, z: 1}
  m_Children:
  - {fileID: 4254141445644691615}
  m_Father: {fileID: 0}
  m_RootOrder: 0
  m_LocalEulerAnglesHint: {x: 0, y: 0, z: 0}
--- !u!1001 &5792484535064217180
PrefabInstance:
  m_ObjectHideFlags: 0
  serializedVersion: 2
  m_Modification:
    m_TransformParent: {fileID: 4254141445644691615}
    m_Modifications:
    - target: {fileID: 100002, guid: fc23a0cf4b1fca44c82d122a834ec82d, type: 3}
      propertyPath: m_IsActive
      value: 1
      objectReference: {fileID: 0}
    - target: {fileID: 100006, guid: fc23a0cf4b1fca44c82d122a834ec82d, type: 3}
      propertyPath: m_Name
      value: ManaOrbParticles
      objectReference: {fileID: 0}
    - target: {fileID: 400006, guid: fc23a0cf4b1fca44c82d122a834ec82d, type: 3}
      propertyPath: m_RootOrder
      value: 0
      objectReference: {fileID: 0}
    - target: {fileID: 400006, guid: fc23a0cf4b1fca44c82d122a834ec82d, type: 3}
      propertyPath: m_LocalPosition.x
      value: -0.0023
      objectReference: {fileID: 0}
    - target: {fileID: 400006, guid: fc23a0cf4b1fca44c82d122a834ec82d, type: 3}
      propertyPath: m_LocalPosition.y
      value: 0.0769
      objectReference: {fileID: 0}
    - target: {fileID: 400006, guid: fc23a0cf4b1fca44c82d122a834ec82d, type: 3}
      propertyPath: m_LocalPosition.z
      value: 0
      objectReference: {fileID: 0}
    - target: {fileID: 400006, guid: fc23a0cf4b1fca44c82d122a834ec82d, type: 3}
      propertyPath: m_LocalRotation.w
      value: 0.49243817
      objectReference: {fileID: 0}
    - target: {fileID: 400006, guid: fc23a0cf4b1fca44c82d122a834ec82d, type: 3}
      propertyPath: m_LocalRotation.x
      value: -0.49243817
      objectReference: {fileID: 0}
    - target: {fileID: 400006, guid: fc23a0cf4b1fca44c82d122a834ec82d, type: 3}
      propertyPath: m_LocalRotation.y
      value: -0.50744915
      objectReference: {fileID: 0}
    - target: {fileID: 400006, guid: fc23a0cf4b1fca44c82d122a834ec82d, type: 3}
      propertyPath: m_LocalRotation.z
      value: 0.50744915
      objectReference: {fileID: 0}
    - target: {fileID: 400006, guid: fc23a0cf4b1fca44c82d122a834ec82d, type: 3}
      propertyPath: m_LocalEulerAnglesHint.x
      value: 0
      objectReference: {fileID: 0}
    - target: {fileID: 400006, guid: fc23a0cf4b1fca44c82d122a834ec82d, type: 3}
      propertyPath: m_LocalEulerAnglesHint.y
      value: 0
      objectReference: {fileID: 0}
    - target: {fileID: 400006, guid: fc23a0cf4b1fca44c82d122a834ec82d, type: 3}
      propertyPath: m_LocalEulerAnglesHint.z
      value: 0
      objectReference: {fileID: 0}
    - target: {fileID: 10800002, guid: fc23a0cf4b1fca44c82d122a834ec82d, type: 3}
      propertyPath: m_Range
      value: 5
      objectReference: {fileID: 0}
    - target: {fileID: 10800002, guid: fc23a0cf4b1fca44c82d122a834ec82d, type: 3}
      propertyPath: m_Color.b
      value: 1
      objectReference: {fileID: 0}
    - target: {fileID: 10800002, guid: fc23a0cf4b1fca44c82d122a834ec82d, type: 3}
      propertyPath: m_Color.g
      value: 0.2787881
      objectReference: {fileID: 0}
    - target: {fileID: 10800002, guid: fc23a0cf4b1fca44c82d122a834ec82d, type: 3}
      propertyPath: m_Color.r
      value: 0
      objectReference: {fileID: 0}
    m_RemovedComponents: []
  m_SourcePrefab: {fileID: 100100000, guid: fc23a0cf4b1fca44c82d122a834ec82d, type: 3}
--- !u!4 &5792484535064354010 stripped
Transform:
  m_CorrespondingSourceObject: {fileID: 400006, guid: fc23a0cf4b1fca44c82d122a834ec82d,
    type: 3}
  m_PrefabInstance: {fileID: 5792484535064217180}
  m_PrefabAsset: {fileID: 0}
