%YAML 1.1
%TAG !u! tag:unity3d.com,2011:
--- !u!114 &11400000
MonoBehaviour:
  m_ObjectHideFlags: 0
  m_CorrespondingSourceObject: {fileID: 0}
  m_PrefabInstance: {fileID: 0}
  m_PrefabAsset: {fileID: 0}
  m_GameObject: {fileID: 0}
  m_Enabled: 1
  m_EditorHideFlags: 0
  m_Script: {fileID: 11500000, guid: 9c8e5999de01c6e4a80fe6bff9cddaad, type: 3}
  m_Name: Boss
  m_EditorClassIdentifier: 
  Hp: 100
  BodyDamage: 0
  BodyKnockback: 10
  WeaponDamage: 30
  WeaponKnockback: 0
  AnimationSpeed: 0
  Weight: 0
  RangedCastTime: 0
  AudioDeath: {fileID: 0}
  AudioHit: {fileID: 0}
