%YAML 1.1
%TAG !u! tag:unity3d.com,2011:
--- !u!114 &11400000
MonoBehaviour:
  m_ObjectHideFlags: 0
  m_CorrespondingSourceObject: {fileID: 0}
  m_PrefabInstance: {fileID: 0}
  m_PrefabAsset: {fileID: 0}
  m_GameObject: {fileID: 0}
  m_Enabled: 1
  m_EditorHideFlags: 0
  m_Script: {fileID: 11500000, guid: fd1a441ca1a1b8c44be8d4249052fbe1, type: 3}
  m_Name: Health Orb
  m_EditorClassIdentifier: Assembly-CSharp::StatOrbs
  Name: MoreHP
  Icon: {fileID: 0}
  Item: {fileID: 9009345909372486902, guid: 8fe23611c5ce40e409068ae6451d66ac, type: 3}
  Description: It boosts your health *magically*
  StatsUp: 20
