%YAML 1.1
%TAG !u! tag:unity3d.com,2011:
--- !u!114 &11400000
MonoBehaviour:
  m_ObjectHideFlags: 0
  m_CorrespondingSourceObject: {fileID: 0}
  m_PrefabInstance: {fileID: 0}
  m_PrefabAsset: {fileID: 0}
  m_GameObject: {fileID: 0}
  m_Enabled: 1
  m_EditorHideFlags: 0
  m_Script: {fileID: 11500000, guid: 9946c16b0377f64448c0a164b7a1952b, type: 3}
  m_Name: ActiveInventory
  m_EditorClassIdentifier: 
  ArmorSet: {fileID: 11400000, guid: 37a8d3d56906d7e499cb36fa4f753df3, type: 2}
  ArmorShield: {fileID: 11400000, guid: a9a125a85c829bc48a0812f127a7bfad, type: 2}
  Weapons:
  - {fileID: 11400000, guid: 0844deb8d6782cd418e8acdf288aee36, type: 2}
  - {fileID: 11400000, guid: 70ca720ab5b998245895b2a45e412fad, type: 2}
  - {fileID: 11400000, guid: 4c1ce92023cd81249a2db72f5f51a369, type: 2}
  Runes:
  - Runes:
    - {fileID: 11400000, guid: 4968f1db9c25cea4a8228d63318c9e87, type: 2}
    - {fileID: 11400000, guid: 4968f1db9c25cea4a8228d63318c9e87, type: 2}
    - {fileID: 11400000, guid: 4968f1db9c25cea4a8228d63318c9e87, type: 2}
  - Runes:
    - {fileID: 11400000, guid: d221dc6ac61ecf9429c57e9454e74c1a, type: 2}
    - {fileID: 11400000, guid: d221dc6ac61ecf9429c57e9454e74c1a, type: 2}
    - {fileID: 11400000, guid: d221dc6ac61ecf9429c57e9454e74c1a, type: 2}
  - Runes:
    - {fileID: 11400000, guid: e4cb32291df418e418b1978160918698, type: 2}
    - {fileID: 11400000, guid: e4cb32291df418e418b1978160918698, type: 2}
    - {fileID: 11400000, guid: e4cb32291df418e418b1978160918698, type: 2}
  - Runes:
    - {fileID: 11400000, guid: d221dc6ac61ecf9429c57e9454e74c1a, type: 2}
    - {fileID: 11400000, guid: d221dc6ac61ecf9429c57e9454e74c1a, type: 2}
    - {fileID: 11400000, guid: d221dc6ac61ecf9429c57e9454e74c1a, type: 2}
  - Runes:
    - {fileID: 11400000, guid: d221dc6ac61ecf9429c57e9454e74c1a, type: 2}
    - {fileID: 11400000, guid: d221dc6ac61ecf9429c57e9454e74c1a, type: 2}
    - {fileID: 11400000, guid: d221dc6ac61ecf9429c57e9454e74c1a, type: 2}
