%YAML 1.1
%TAG !u! tag:unity3d.com,2011:
--- !u!114 &11400000
MonoBehaviour:
  m_ObjectHideFlags: 0
  m_CorrespondingSourceObject: {fileID: 0}
  m_PrefabInstance: {fileID: 0}
  m_PrefabAsset: {fileID: 0}
  m_GameObject: {fileID: 0}
  m_Enabled: 1
  m_EditorHideFlags: 0
  m_Script: {fileID: 11500000, guid: d395f8002c9ff5f49bca9ac06c72dbb1, type: 3}
  m_Name: Inventory
  m_EditorClassIdentifier: 
  Weapons:
  - {fileID: 11400000, guid: 0844deb8d6782cd418e8acdf288aee36, type: 2}
  - {fileID: 11400000, guid: 405644dacdb88f24cbfe60c86f6393a7, type: 2}
  - {fileID: 11400000, guid: 2ac0770a931bca042a22bf9eb067bc69, type: 2}
  - {fileID: 11400000, guid: c3779f592a5113c4984122d9287bdc38, type: 2}
  - {fileID: 11400000, guid: 4c1ce92023cd81249a2db72f5f51a369, type: 2}
  - {fileID: 11400000, guid: 16a1109c3c62e42459041e058400f603, type: 2}
  - {fileID: 11400000, guid: 70ca720ab5b998245895b2a45e412fad, type: 2}
  Armor:
  - {fileID: 11400000, guid: a9a125a85c829bc48a0812f127a7bfad, type: 2}
  - {fileID: 11400000, guid: 46df556a04e5865408fdbbd1241df42c, type: 2}
  - {fileID: 11400000, guid: fc691e44bfeb425478abbf517dacfe0e, type: 2}
  - {fileID: 11400000, guid: 01d58629cccede944abeade161cf2f6c, type: 2}
  - {fileID: 11400000, guid: 6f1a1f945bbad5b458072e35b4f401fc, type: 2}
  Runes:
  - {fileID: 11400000, guid: d51fad8d7f6c7de4495d71917c826a2b, type: 2}
  - {fileID: 11400000, guid: 67445afec5d937545a95320444eca309, type: 2}
  - {fileID: 11400000, guid: 05401fc7c3f7244408db71570be7a42f, type: 2}
  - {fileID: 11400000, guid: 73b50ce93bac3ac43993f2defebc64ee, type: 2}
  - {fileID: 11400000, guid: 20561f33417be2f4497fd6e7eb1a95e9, type: 2}
  - {fileID: 11400000, guid: 28dd4af8296687a46a98f5616c7abb9b, type: 2}
  - {fileID: 11400000, guid: 13257dd264caf3f49a63d2d127b84191, type: 2}
  - {fileID: 11400000, guid: 05401fc7c3f7244408db71570be7a42f, type: 2}
  - {fileID: 11400000, guid: 05401fc7c3f7244408db71570be7a42f, type: 2}
  - {fileID: 11400000, guid: 05401fc7c3f7244408db71570be7a42f, type: 2}
  KeyItems: []
  StatOrbs: []
