%YAML 1.1
%TAG !u! tag:unity3d.com,2011:
--- !u!114 &11400000
MonoBehaviour:
  m_ObjectHideFlags: 0
  m_CorrespondingSourceObject: {fileID: 0}
  m_PrefabInstance: {fileID: 0}
  m_PrefabAsset: {fileID: 0}
  m_GameObject: {fileID: 0}
  m_Enabled: 1
  m_EditorHideFlags: 0
  m_Script: {fileID: 11500000, guid: cd77d2f8414bf8f46a24d00714ee4f88, type: 3}
  m_Name: Point Shield
  m_EditorClassIdentifier: 
  Name: Point Shield
  Icon: {fileID: 21300000, guid: 5f4c35327ee0184418eac27c0ebcf83c, type: 3}
  Item: {fileID: 2660321992455724841, guid: 06399ce1e248c8c44a0e1c8763a72609, type: 3}
  Description: 
  DefenseBoost: 0
  Type: 0
