%YAML 1.1
%TAG !u! tag:unity3d.com,2011:
--- !u!114 &11400000
MonoBehaviour:
  m_ObjectHideFlags: 0
  m_CorrespondingSourceObject: {fileID: 0}
  m_PrefabInstance: {fileID: 0}
  m_PrefabAsset: {fileID: 0}
  m_GameObject: {fileID: 0}
  m_Enabled: 1
  m_EditorHideFlags: 0
  m_Script: {fileID: 11500000, guid: cd77d2f8414bf8f46a24d00714ee4f88, type: 3}
  m_Name: Spikey Shield
  m_EditorClassIdentifier: 
  Name: Spikey Shield
  Icon: {fileID: 21300000, guid: ad85e195e04eb3f4f896a9c7e3509ab6, type: 3}
  Item: {fileID: 8054545379878580505, guid: e0248305398b0e449aa03e73e55c7c3f, type: 3}
  Description: 
  DefenseBoost: 0
  Type: 0
