%YAML 1.1
%TAG !u! tag:unity3d.com,2011:
--- !u!114 &-8276844484780582874
MonoBehaviour:
  m_ObjectHideFlags: 3
  m_CorrespondingSourceObject: {fileID: 0}
  m_PrefabInstance: {fileID: 0}
  m_PrefabAsset: {fileID: 0}
  m_GameObject: {fileID: 0}
  m_Enabled: 1
  m_EditorHideFlags: 0
  m_Script: {fileID: 11500000, guid: 81180773991d8724ab7f2d216912b564, type: 3}
  m_Name: ChromaticAberration
  m_EditorClassIdentifier: 
  active: 1
  m_AdvancedMode: 0
  intensity:
    m_OverrideState: 1
    m_Value: 0.2
    min: 0
    max: 1
--- !u!114 &-6709952992672861387
MonoBehaviour:
  m_ObjectHideFlags: 3
  m_CorrespondingSourceObject: {fileID: 0}
  m_PrefabInstance: {fileID: 0}
  m_PrefabAsset: {fileID: 0}
  m_GameObject: {fileID: 0}
  m_Enabled: 1
  m_EditorHideFlags: 0
  m_Script: {fileID: 11500000, guid: 899c54efeace73346a0a16faa3afe726, type: 3}
  m_Name: Vignette
  m_EditorClassIdentifier: 
  active: 1
  m_AdvancedMode: 0
  color:
    m_OverrideState: 1
    m_Value: {r: 0, g: 0, b: 0, a: 1}
    hdr: 0
    showAlpha: 0
    showEyeDropper: 1
  center:
    m_OverrideState: 1
    m_Value: {x: 0.5, y: 0.5}
  intensity:
    m_OverrideState: 1
    m_Value: 0.265
    min: 0
    max: 1
  smoothness:
    m_OverrideState: 1
    m_Value: 1
    min: 0.01
    max: 1
  rounded:
    m_OverrideState: 1
    m_Value: 0
--- !u!114 &-2800415583840568013
MonoBehaviour:
  m_ObjectHideFlags: 3
  m_CorrespondingSourceObject: {fileID: 0}
  m_PrefabInstance: {fileID: 0}
  m_PrefabAsset: {fileID: 0}
  m_GameObject: {fileID: 0}
  m_Enabled: 1
  m_EditorHideFlags: 0
  m_Script: {fileID: 11500000, guid: 0b2db86121404754db890f4c8dfe81b2, type: 3}
  m_Name: Bloom
  m_EditorClassIdentifier: 
  active: 1
  m_AdvancedMode: 0
  threshold:
    m_OverrideState: 1
    m_Value: 0.9
    min: 0
  intensity:
    m_OverrideState: 1
    m_Value: 1
    min: 0
  scatter:
    m_OverrideState: 1
    m_Value: 0.7
    min: 0
    max: 1
  clamp:
    m_OverrideState: 1
    m_Value: 65472
    min: 0
  tint:
    m_OverrideState: 1
    m_Value: {r: 1, g: 1, b: 1, a: 1}
    hdr: 0
    showAlpha: 0
    showEyeDropper: 1
  highQualityFiltering:
    m_OverrideState: 1
    m_Value: 0
  dirtTexture:
    m_OverrideState: 1
    m_Value: {fileID: 0}
  dirtIntensity:
    m_OverrideState: 1
    m_Value: 0
    min: 0
--- !u!114 &11400000
MonoBehaviour:
  m_ObjectHideFlags: 0
  m_CorrespondingSourceObject: {fileID: 0}
  m_PrefabInstance: {fileID: 0}
  m_PrefabAsset: {fileID: 0}
  m_GameObject: {fileID: 0}
  m_Enabled: 1
  m_EditorHideFlags: 0
  m_Script: {fileID: 11500000, guid: d7fd9488000d3734a9e00ee676215985, type: 3}
  m_Name: Main Camera Profile
  m_EditorClassIdentifier: 
  components:
  - {fileID: -2800415583840568013}
  - {fileID: -8276844484780582874}
  - {fileID: -6709952992672861387}
  - {fileID: 6755497461415264673}
  - {fileID: 7212367063530442111}
--- !u!114 &6755497461415264673
MonoBehaviour:
  m_ObjectHideFlags: 3
  m_CorrespondingSourceObject: {fileID: 0}
  m_PrefabInstance: {fileID: 0}
  m_PrefabAsset: {fileID: 0}
  m_GameObject: {fileID: 0}
  m_Enabled: 1
  m_EditorHideFlags: 0
  m_Script: {fileID: 11500000, guid: 29fa0085f50d5e54f8144f766051a691, type: 3}
  m_Name: FilmGrain
  m_EditorClassIdentifier: 
  active: 1
  m_AdvancedMode: 0
  type:
    m_OverrideState: 1
    m_Value: 0
  intensity:
    m_OverrideState: 1
    m_Value: 0.1
    min: 0
    max: 1
  response:
    m_OverrideState: 1
    m_Value: 0.8
    min: 0
    max: 1
  texture:
    m_OverrideState: 1
    m_Value: {fileID: 0}
--- !u!114 &7212367063530442111
MonoBehaviour:
  m_ObjectHideFlags: 3
  m_CorrespondingSourceObject: {fileID: 0}
  m_PrefabInstance: {fileID: 0}
  m_PrefabAsset: {fileID: 0}
  m_GameObject: {fileID: 0}
  m_Enabled: 1
  m_EditorHideFlags: 0
  m_Script: {fileID: 11500000, guid: 66f335fb1ffd8684294ad653bf1c7564, type: 3}
  m_Name: ColorAdjustments
  m_EditorClassIdentifier: 
  active: 1
  m_AdvancedMode: 0
  postExposure:
    m_OverrideState: 1
    m_Value: 0
  contrast:
    m_OverrideState: 1
    m_Value: 0
    min: -100
    max: 100
  colorFilter:
    m_OverrideState: 1
    m_Value: {r: 1, g: 1, b: 1, a: 1}
    hdr: 1
    showAlpha: 0
    showEyeDropper: 1
  hueShift:
    m_OverrideState: 1
    m_Value: 0
    min: -180
    max: 180
  saturation:
    m_OverrideState: 1
    m_Value: 0
    min: -100
    max: 100
