%YAML 1.1
%TAG !u! tag:unity3d.com,2011:
--- !u!114 &11400000
MonoBehaviour:
  m_ObjectHideFlags: 0
  m_CorrespondingSourceObject: {fileID: 0}
  m_PrefabInstance: {fileID: 0}
  m_PrefabAsset: {fileID: 0}
  m_GameObject: {fileID: 0}
  m_Enabled: 0
  m_EditorHideFlags: 0
  m_Script: {fileID: 11500000, guid: 20115e038fa6d1743bc045d69d66b92b, type: 3}
  m_Name: LangEn
  m_EditorClassIdentifier: 
  Title: English
  DefaultTexts: {fileID: 0}
  TextArray:
  - Key: MainMenu
    Value: Main menu
  - Key: QuitGame
    Value: Quit game
  - Key: Retry
    Value: Retry
  - Key: Equipment
    Value: Equipment
  - Key: Runes
    Value: Runes
  - Key: Options
    Value: Options
  - Key: SoundEffects
    Value: Sound effects
  - Key: Music
    Value: Music
  - Key: Continue
    Value: Continue
  - Key: Controls
    Value: Controls
  - Key: MadeBy
    Value: 'Made by:'
