%YAML 1.1
%TAG !u! tag:unity3d.com,2011:
--- !u!114 &11400000
MonoBehaviour:
  m_ObjectHideFlags: 0
  m_CorrespondingSourceObject: {fileID: 0}
  m_PrefabInstance: {fileID: 0}
  m_PrefabAsset: {fileID: 0}
  m_GameObject: {fileID: 0}
  m_Enabled: 1
  m_EditorHideFlags: 0
  m_Script: {fileID: 11500000, guid: 7eaf29d82fd6e2b468d9083950029519, type: 3}
  m_Name: EmptyCircleRune
  m_EditorClassIdentifier: 
  Name: 
  Icon: {fileID: 21300000, guid: 50e29d613b4d8eb4bb1d3103abee9bc6, type: 3}
  Item: {fileID: 0}
  Description: 
  Type: 0
  StatUp: 0
